mtllib ./ExportedModel_Collider.mtl
# Unity Asset Buildr OBJ Exporter
 http://buildr.jasperstocker.com
g ExportedModel_Collider
v 12.01888 0 -8.50072
v -12.57184 0 -9.96458
v -13.66501 0 9.519951
v 14.37754 0 12.94402
v 12.01888 51.64231 -8.50072
v -3.093766 53.30709 0.6767321
v -12.57184 51.64231 -9.96458
v -13.66501 51.64231 9.519951
v -3.093766 53.30709 0.6767321
v 14.37754 51.64231 12.94402
v -12.57184 51.64231 -9.96458
v -3.093766 53.30709 0.6767321
v -13.66501 51.64231 9.519951
v 14.37754 51.64231 12.94402
v 2.782861 52.88175 1.209905
v 12.01888 51.64231 -8.50072
v -3.093766 53.30709 0.6767321
v 2.782861 52.88175 1.209905
v 14.37754 51.64231 12.94402
v 12.01888 51.64231 -8.50072
v 2.782861 52.88175 1.209905
v -3.093766 53.30709 0.6767321
v 12.01888 0 -8.50072
v 12.01888 51.64231 -8.50072
v -12.57184 0 -9.96458
v -12.57184 51.64231 -9.96458
v -12.57184 0 -9.96458
v -12.57184 51.64231 -9.96458
v -13.66501 0 9.519951
v -13.66501 51.64231 9.519951
v -13.66501 0 9.519951
v -13.66501 51.64231 9.519951
v 14.37754 0 12.94402
v 14.37754 51.64231 12.94402
v 14.37754 0 12.94402
v 14.37754 51.64231 12.94402
v 12.01888 0 -8.50072
v 12.01888 51.64231 -8.50072

vn -0.05942374 0 0.9982329
vn 0.9984298 0 0.05601642
vn 0.1212023 0 -0.9926278
vn -0.9940057 0 0.1093286
vn 0.01081947 0.983285 -0.1817515
vn 0.01081947 0.983285 -0.1817515
vn 0.01081947 0.983285 -0.1817515
vn -0.0220677 0.983285 0.180731
vn -0.0220677 0.983285 0.180731
vn -0.0220677 0.983285 0.180731
vn -0.1817874 0.983285 -0.01019909
vn -0.1817874 0.983285 -0.01019909
vn -0.1817874 0.983285 -0.01019909
vn 0.1333675 0.990958 -0.0146688
vn 0.1333675 0.990958 -0.0146688
vn 0.1333675 0.990958 -0.0146688
vn 0.07688148 0.9961653 0.04176139
vn 0.07688148 0.9961653 0.04176139
vn 0.07688148 0.9961653 0.04176139
vn 0.08599748 0.9944734 -0.0602256
vn 0.08599748 0.9944734 -0.0602256
vn 0.08599748 0.9944734 -0.0602256
vn 0.05942374 0 -0.9982329
vn 0.05942374 0 -0.9982329
vn 0.05942374 0 -0.9982329
vn 0.05942374 0 -0.9982329
vn -0.9984298 0 -0.05601642
vn -0.9984298 0 -0.05601642
vn -0.9984298 0 -0.05601642
vn -0.9984298 0 -0.05601642
vn -0.1212023 0 0.9926278
vn -0.1212023 0 0.9926278
vn -0.1212023 0 0.9926278
vn -0.1212023 0 0.9926278
vn 0.9940057 0 -0.1093286
vn 0.9940057 0 -0.1093286
vn 0.9940057 0 -0.1093286
vn 0.9940057 0 -0.1093286

vt 0 0
vt 0 0
vt 0 0
vt 0 0
vt 0 0
vt 14.54058 10.23028
vt 24.63426 -2.804337E-08
vt 0 0
vt 9.421498 10.23028
vt 28.25083 -9.927135E-10
vt 0 0
vt 10.09367 10.23028
vt 19.51517 5.140416E-08
vt 0 0
vt 12.9314 10.33576
vt 21.57406 -1.282018E-07
vt 9.421497 10.11411
vt 15.31942 10.28169
vt 28.25083 -9.927135E-10
vt 0 0
vt 8.642655 10.31111
vt 14.54058 10.15963
vt 0 0
vt 0 0
vt 0 0
vt 0 0
vt 0 0
vt 0 0
vt 0 0
vt 0 0
vt 0 0
vt 0 0
vt 0 0
vt 0 0
vt 0 0
vt 0 0
vt 0 0
vt 0 0

g blank
usemtl blank
usemap blank
f 2/2/2 1/1/1 3/3/3
f 3/3/3 1/1/1 4/4/4
f 6/6/6 5/5/5 7/7/7
f 9/9/9 8/8/8 10/10/10
f 12/12/12 11/11/11 13/13/13
f 15/15/15 14/14/14 16/16/16
f 18/18/18 17/17/17 19/19/19
f 21/21/21 20/20/20 22/22/22
f 24/24/24 23/23/23 25/25/25
f 24/24/24 25/25/25 26/26/26
f 28/28/28 27/27/27 29/29/29
f 28/28/28 29/29/29 30/30/30
f 32/32/32 31/31/31 33/33/33
f 32/32/32 33/33/33 34/34/34
f 36/36/36 35/35/35 37/37/37
f 36/36/36 37/37/37 38/38/38
